UART/class_based/uart_tb.vcd
$date
	Sat Dec 13 21:04:16 2025
$end
$version
	QuestaSim Version 2025.2_1
$end
$timescale
	1ns
$end

$scope module uart_tb_top $end
$var reg 1 ! clk $end
$var reg 1 " reset $end

$scope module dut $end
$var wire 1 # clk $end
$var wire 1 $ reset $end
$var wire 1 % baud_divisor [15] $end
$var wire 1 & baud_divisor [14] $end
$var wire 1 ' baud_divisor [13] $end
$var wire 1 ( baud_divisor [12] $end
$var wire 1 ) baud_divisor [11] $end
$var wire 1 * baud_divisor [10] $end
$var wire 1 + baud_divisor [9] $end
$var wire 1 , baud_divisor [8] $end
$var wire 1 - baud_divisor [7] $end
$var wire 1 . baud_divisor [6] $end
$var wire 1 / baud_divisor [5] $end
$var wire 1 0 baud_divisor [4] $end
$var wire 1 1 baud_divisor [3] $end
$var wire 1 2 baud_divisor [2] $end
$var wire 1 3 baud_divisor [1] $end
$var wire 1 4 baud_divisor [0] $end
$var wire 1 5 tx_data [7] $end
$var wire 1 6 tx_data [6] $end
$var wire 1 7 tx_data [5] $end
$var wire 1 8 tx_data [4] $end
$var wire 1 9 tx_data [3] $end
$var wire 1 : tx_data [2] $end
$var wire 1 ; tx_data [1] $end
$var wire 1 < tx_data [0] $end
$var wire 1 = tx_start $end
$var wire 1 > tx $end
$var wire 1 ? tx_busy $end
$var wire 1 @ tx_done $end
$var wire 1 A rx $end
$var wire 1 B rx_data [7] $end
$var wire 1 C rx_data [6] $end
$var wire 1 D rx_data [5] $end
$var wire 1 E rx_data [4] $end
$var wire 1 F rx_data [3] $end
$var wire 1 G rx_data [2] $end
$var wire 1 H rx_data [1] $end
$var wire 1 I rx_data [0] $end
$var wire 1 J rx_ready $end
$var wire 1 K tx_tickk $end
$var wire 1 L rx_tickk $end
$var wire 1 M tx_tick $end
$var wire 1 N rx_tick $end

$scope module baud_gen $end
$var wire 1 # clk $end
$var wire 1 $ reset $end
$var wire 1 % baud_divisor [15] $end
$var wire 1 & baud_divisor [14] $end
$var wire 1 ' baud_divisor [13] $end
$var wire 1 ( baud_divisor [12] $end
$var wire 1 ) baud_divisor [11] $end
$var wire 1 * baud_divisor [10] $end
$var wire 1 + baud_divisor [9] $end
$var wire 1 , baud_divisor [8] $end
$var wire 1 - baud_divisor [7] $end
$var wire 1 . baud_divisor [6] $end
$var wire 1 / baud_divisor [5] $end
$var wire 1 0 baud_divisor [4] $end
$var wire 1 1 baud_divisor [3] $end
$var wire 1 2 baud_divisor [2] $end
$var wire 1 3 baud_divisor [1] $end
$var wire 1 4 baud_divisor [0] $end
$var reg 1 O tx_tick $end
$var reg 1 P rx_tick $end
$var reg 16 Q count [15:0] $end
$var reg 4 R t_count [3:0] $end
$var wire 1 S tick_enable $end
$upscope $end

$scope module transmitter $end
$var wire 1 # clk $end
$var wire 1 $ reset $end
$var wire 1 M tx_tick $end
$var wire 1 = tx_start $end
$var wire 1 5 tx_data [7] $end
$var wire 1 6 tx_data [6] $end
$var wire 1 7 tx_data [5] $end
$var wire 1 8 tx_data [4] $end
$var wire 1 9 tx_data [3] $end
$var wire 1 : tx_data [2] $end
$var wire 1 ; tx_data [1] $end
$var wire 1 < tx_data [0] $end
$var reg 1 T tx $end
$var reg 1 U tx_busy $end
$var reg 1 V tx_done $end
$var reg 2 W state [1:0] $end
$var reg 2 X next_state [1:0] $end
$var reg 3 Y cnt [2:0] $end
$var reg 8 Z shift_reg [7:0] $end
$upscope $end

$scope module receiver $end
$var wire 1 # clk $end
$var wire 1 $ reset $end
$var wire 1 N rx_tick $end
$var wire 1 A rx $end
$var reg 8 [ rx_data [7:0] $end
$var reg 1 \ rx_ready $end
$var reg 2 ] state [1:0] $end
$var reg 2 ^ next_state [1:0] $end
$var reg 4 _ sample_cnt [3:0] $end
$var reg 3 ` bit_cnt [2:0] $end
$var reg 8 a shift_reg [7:0] $end
$upscope $end
$upscope $end
$upscope $end
$enddefinitions $end
#0
$dumpvars
0!
1"
xO
xP
bx Q
bx R
xT
xU
xV
bx W
b0 X
bx Y
bx Z
bx [
x\
bx ]
b0 ^
bx _
bx `
bx a
xM
xN
xS
xA
x=
x<
x;
x:
x9
x8
x7
x6
x5
04
03
02
01
00
1/
0.
0-
0,
0+
0*
0)
0(
0'
0&
0%
1$
0#
x>
x?
x@
xI
xH
xG
xF
xE
xD
xC
xB
xJ
xK
xL
$end
#10
1!
1#
0P
b0 Q
0O
b0 R
b0 W
1T
b0 Z
b0 Y
0U
0V
b0 ]
b0 _
b0 `
b0 a
b0 [
0\
0S
1>
0?
0@
0I
0H
0G
0F
0E
0D
0C
0B
0J
0N
0M
1A
0K
0L
#11
0<
0;
0:
09
08
07
06
05
0=
#20
0"
0!
0$
0#
#30
1!
1#
b1 Q
1S
#40
0!
0#
#50
1!
1#
b0 Q
1P
b1 R
0S
1N
1L
#60
0!
0#
#70
1!
1#
0P
b1 Q
1S
0N
0L
#80
0!
0#
#90
1!
1#
b0 Q
1P
b10 R
0S
1N
1L
#100
0!
0#
#110
1!
1#
0P
b1 Q
1S
0N
0L
#120
0!
0#
#130
1!
1#
b0 Q
1P
b11 R
0S
1N
1L
#140
0!
0#
#150
1!
1#
0P
b1 Q
1S
0N
0L
#160
0!
0#
#170
1!
1#
b0 Q
1P
b100 R
0S
1N
1L
#180
0!
0#
#190
1!
1#
0P
b1 Q
1S
0N
0L
#200
0!
0#
#210
1!
1#
b0 Q
1P
b101 R
0S
1N
1L
#220
0!
0#
#230
1!
1#
0P
b1 Q
1S
0N
0L
#240
0!
0#
#250
1!
1#
b0 Q
1P
b110 R
0S
1N
1L
#260
0!
0#
#270
1!
1#
0P
b1 Q
1S
0N
0L
#280
0!
0#
#290
1!
1#
b0 Q
1P
b111 R
0S
1N
1L
#300
0!
0#
#310
1!
1#
0P
b1 Q
1S
0N
0L
#320
0!
0#
#330
1!
1#
b0 Q
1P
b1000 R
0S
1N
1L
#340
0!
0#
#350
1!
1#
0P
b1 Q
1S
0N
0L
#360
0!
0#
#370
1!
1#
b0 Q
1P
b1001 R
0S
1N
1L
#380
0!
0#
#390
1!
1#
0P
b1 Q
1S
0N
0L
#400
0!
0#
#410
1!
1#
b0 Q
1P
b1010 R
0S
1N
1L
#420
0!
0#
#430
1!
1#
0P
b1 Q
1S
0N
0L
#440
0!
0#
#450
1!
1#
b0 Q
1P
b1011 R
0S
1N
1L
#460
0!
0#
#470
1!
1#
0P
b1 Q
1S
0N
0L
#480
0!
0#
#490
1!
1#
b0 Q
1P
b1100 R
0S
1N
1L
#500
0!
0#
#510
1!
1#
0P
b1 Q
1S
0N
0L
#520
0!
0#
#530
1!
1#
b0 Q
1P
b1101 R
0S
1N
1L
#540
0!
0#
#550
1!
1#
0P
b1 Q
1S
0N
0L
#560
0!
0#
#570
1!
1#
b0 Q
1P
b1110 R
0S
1N
1L
#580
0!
0#
#590
1!
1#
0P
b1 Q
1S
0N
0L
#600
0!
0#
#610
1!
1#
b0 Q
1P
b1111 R
0S
1N
1L
#620
0!
0#
#630
1!
1#
0P
b1 Q
1S
0N
0L
#640
0!
0#
#650
1!
1#
b0 Q
1P
b0 R
1O
0S
1N
1M
1K
1L
#660
0!
0#
#670
1!
1#
0P
b1 Q
0O
1S
0N
0M
0K
0L
#671
17
1=
b1 X
#680
0!
0#
#690
1!
1#
b0 Q
1P
b1 W
b100000 Z
1U
b1 R
0S
1?
1N
1L
#691
0=
#700
0!
0#
#710
1!
1#
0P
b1 Q
0T
1S
0>
0N
0A
0L
b1 ^
#720
0!
0#
#730
1!
1#
b0 Q
1P
b1 ]
b10 R
0S
1N
1L
#740
0!
0#
#750
1!
1#
0P
b1 Q
b1 _
1S
0N
0L
#760
0!
0#
#770
1!
1#
b0 Q
1P
b11 R
0S
1N
1L
#780
0!
0#
#790
1!
1#
0P
b1 Q
b10 _
1S
0N
0L
#800
0!
0#
#810
1!
1#
b0 Q
1P
b100 R
0S
1N
1L
#820
0!
0#
#830
1!
1#
0P
b1 Q
b11 _
1S
0N
0L
#840
0!
0#
#850
1!
1#
b0 Q
1P
b101 R
0S
1N
1L
#860
0!
0#
#870
1!
1#
0P
b1 Q
b100 _
1S
0N
0L
#880
0!
0#
#890
1!
1#
b0 Q
1P
b110 R
0S
1N
1L
#900
0!
0#
#910
1!
1#
0P
b1 Q
b101 _
1S
0N
0L
#920
0!
0#
#930
1!
1#
b0 Q
1P
b111 R
0S
1N
1L
#940
0!
0#
#950
1!
1#
0P
b1 Q
b110 _
1S
0N
0L
#960
0!
0#
#970
1!
1#
b0 Q
1P
b1000 R
0S
1N
1L
#980
0!
0#
#990
1!
1#
0P
b1 Q
b111 _
1S
0N
0L
#1000
0!
0#
#1010
1!
1#
b0 Q
1P
b1001 R
0S
1N
1L
b10 ^
#1020
0!
0#
#1030
1!
1#
0P
b1 Q
b10 ]
b0 _
1S
0N
0L
#1040
0!
0#
#1050
1!
1#
b0 Q
1P
b1010 R
0S
1N
1L
#1060
0!
0#
#1070
1!
1#
0P
b1 Q
b1 _
1S
0N
0L
#1080
0!
0#
#1090
1!
1#
b0 Q
1P
b1011 R
0S
1N
1L
#1100
0!
0#
#1110
1!
1#
0P
b1 Q
b10 _
1S
0N
0L
#1120
0!
0#
#1130
1!
1#
b0 Q
1P
b1100 R
0S
1N
1L
#1140
0!
0#
#1150
1!
1#
0P
b1 Q
b11 _
1S
0N
0L
#1160
0!
0#
#1170
1!
1#
b0 Q
1P
b1101 R
0S
1N
1L
#1180
0!
0#
#1190
1!
1#
0P
b1 Q
b100 _
1S
0N
0L
#1200
0!
0#
#1210
1!
1#
b0 Q
1P
b1110 R
0S
1N
1L
#1220
0!
0#
#1230
1!
1#
0P
b1 Q
b101 _
1S
0N
0L
#1240
0!
0#
#1250
1!
1#
b0 Q
1P
b1111 R
0S
1N
1L
#1260
0!
0#
#1270
1!
1#
0P
b1 Q
b110 _
1S
0N
0L
#1280
0!
0#
#1290
1!
1#
b0 Q
1P
b0 R
1O
0S
1N
1M
1K
1L
b10 X
#1300
0!
0#
#1310
1!
1#
0P
b1 Q
b10 W
b111 _
0O
1S
0N
0M
0K
0L
#1320
0!
0#
#1330
1!
1#
b0 Q
1P
b1 R
0S
1N
1L
#1340
0!
0#
#1350
1!
1#
0P
b1 Q
b1000 _
1S
0N
0L
#1360
0!
0#
#1370
1!
1#
b0 Q
1P
b10 R
0S
1N
1L
#1380
0!
0#
#1390
1!
1#
0P
b1 Q
b1001 _
1S
0N
0L
#1400
0!
0#
#1410
1!
1#
b0 Q
1P
b11 R
0S
1N
1L
#1420
0!
0#
#1430
1!
1#
0P
b1 Q
b1010 _
1S
0N
0L
#1440
0!
0#
#1450
1!
1#
b0 Q
1P
b100 R
0S
1N
1L
#1460
0!
0#
#1470
1!
1#
0P
b1 Q
b1011 _
1S
0N
0L
#1480
0!
0#
#1490
1!
1#
b0 Q
1P
b101 R
0S
1N
1L
#1500
0!
0#
#1510
1!
1#
0P
b1 Q
b1100 _
1S
0N
0L
#1520
0!
0#
#1530
1!
1#
b0 Q
1P
b110 R
0S
1N
1L
#1540
0!
0#
#1550
1!
1#
0P
b1 Q
b1101 _
1S
0N
0L
#1560
0!
0#
#1570
1!
1#
b0 Q
1P
b111 R
0S
1N
1L
#1580
0!
0#
#1590
1!
1#
0P
b1 Q
b1110 _
1S
0N
0L
#1600
0!
0#
#1610
1!
1#
b0 Q
1P
b1000 R
0S
1N
1L
#1620
0!
0#
#1630
1!
1#
0P
b1 Q
b1111 _
1S
0N
0L
#1640
0!
0#
#1650
1!
1#
b0 Q
1P
b1001 R
0S
1N
1L
#1660
0!
0#
#1670
1!
1#
0P
b1 Q
b0 _
b1 `
1S
0N
0L
#1680
0!
0#
#1690
1!
1#
b0 Q
1P
b1010 R
0S
1N
1L
#1700
0!
0#
#1710
1!
1#
0P
b1 Q
b1 _
1S
0N
0L
#1720
0!
0#
#1730
1!
1#
b0 Q
1P
b1011 R
0S
1N
1L
#1740
0!
0#
#1750
1!
1#
0P
b1 Q
b10 _
1S
0N
0L
#1760
0!
0#
#1770
1!
1#
b0 Q
1P
b1100 R
0S
1N
1L
#1780
0!
0#
#1790
1!
1#
0P
b1 Q
b11 _
1S
0N
0L
#1800
0!
0#
#1810
1!
1#
b0 Q
1P
b1101 R
0S
1N
1L
#1820
0!
0#
#1830
1!
1#
0P
b1 Q
b100 _
1S
0N
0L
#1840
0!
0#
#1850
1!
1#
b0 Q
1P
b1110 R
0S
1N
1L
#1860
0!
0#
#1870
1!
1#
0P
b1 Q
b101 _
1S
0N
0L
#1880
0!
0#
#1890
1!
1#
b0 Q
1P
b1111 R
0S
1N
1L
#1900
0!
0#
#1910
1!
1#
0P
b1 Q
b110 _
1S
0N
0L
#1920
0!
0#
#1930
1!
1#
b0 Q
1P
b0 R
1O
0S
1N
1M
1K
1L
#1940
0!
0#
#1950
1!
1#
0P
b1 Q
b10000 Z
b1 Y
b111 _
0O
1S
0N
0M
0K
0L
#1960
0!
0#
#1970
1!
1#
b0 Q
1P
b1 R
0S
1N
1L
#1980
0!
0#
#1990
1!
1#
0P
b1 Q
b1000 _
1S
0N
0L
#2000
0!
0#
#2010
1!
1#
b0 Q
1P
b10 R
0S
1N
1L
#2020
0!
0#
#2030
1!
1#
0P
b1 Q
b1001 _
1S
0N
0L
#2040
0!
0#
#2050
1!
1#
b0 Q
1P
b11 R
0S
1N
1L
#2060
0!
0#
#2070
1!
1#
0P
b1 Q
b1010 _
1S
0N
0L
#2080
0!
0#
#2090
1!
1#
b0 Q
1P
b100 R
0S
1N
1L
#2100
0!
0#
#2110
1!
1#
0P
b1 Q
b1011 _
1S
0N
0L
#2120
0!
0#
#2130
1!
1#
b0 Q
1P
b101 R
0S
1N
1L
#2140
0!
0#
#2150
1!
1#
0P
b1 Q
b1100 _
1S
0N
0L
#2160
0!
0#
#2170
1!
1#
b0 Q
1P
b110 R
0S
1N
1L
#2180
0!
0#
#2190
1!
1#
0P
b1 Q
b1101 _
1S
0N
0L
#2200
0!
0#
#2210
1!
1#
b0 Q
1P
b111 R
0S
1N
1L
#2220
0!
0#
#2230
1!
1#
0P
b1 Q
b1110 _
1S
0N
0L
#2240
0!
0#
#2250
1!
1#
b0 Q
1P
b1000 R
0S
1N
1L
#2260
0!
0#
#2270
1!
1#
0P
b1 Q
b1111 _
1S
0N
0L
#2280
0!
0#
#2290
1!
1#
b0 Q
1P
b1001 R
0S
1N
1L
#2300
0!
0#
#2310
1!
1#
0P
b1 Q
b0 _
b10 `
1S
0N
0L
#2320
0!
0#
#2330
1!
1#
b0 Q
1P
b1010 R
0S
1N
1L
#2340
0!
0#
#2350
1!
1#
0P
b1 Q
b1 _
1S
0N
0L
#2360
0!
0#
#2370
1!
1#
b0 Q
1P
b1011 R
0S
1N
1L
#2380
0!
0#
#2390
1!
1#
0P
b1 Q
b10 _
1S
0N
0L
#2400
0!
0#
#2410
1!
1#
b0 Q
1P
b1100 R
0S
1N
1L
#2420
0!
0#
#2430
1!
1#
0P
b1 Q
b11 _
1S
0N
0L
#2440
0!
0#
#2450
1!
1#
b0 Q
1P
b1101 R
0S
1N
1L
#2460
0!
0#
#2470
1!
1#
0P
b1 Q
b100 _
1S
0N
0L
#2480
0!
0#
#2490
1!
1#
b0 Q
1P
b1110 R
0S
1N
1L
#2500
0!
0#
#2510
1!
1#
0P
b1 Q
b101 _
1S
0N
0L
#2520
0!
0#
#2530
1!
1#
b0 Q
1P
b1111 R
0S
1N
1L
#2540
0!
0#
#2550
1!
1#
0P
b1 Q
b110 _
1S
0N
0L
#2560
0!
0#
#2570
1!
1#
b0 Q
1P
b0 R
1O
0S
1N
1M
1K
1L
#2580
0!
0#
#2590
1!
1#
0P
b1 Q
b1000 Z
b10 Y
b111 _
0O
1S
0N
0M
0K
0L
#2600
0!
0#
#2610
1!
1#
b0 Q
1P
b1 R
0S
1N
1L
#2620
0!
0#
#2630
1!
1#
0P
b1 Q
b1000 _
1S
0N
0L
#2640
0!
0#
#2650
1!
1#
b0 Q
1P
b10 R
0S
1N
1L
#2660
0!
0#
#2670
1!
1#
0P
b1 Q
b1001 _
1S
0N
0L
#2680
0!
0#
#2690
1!
1#
b0 Q
1P
b11 R
0S
1N
1L
#2700
0!
0#
#2710
1!
1#
0P
b1 Q
b1010 _
1S
0N
0L
#2720
0!
0#
#2730
1!
1#
b0 Q
1P
b100 R
0S
1N
1L
#2740
0!
0#
#2750
1!
1#
0P
b1 Q
b1011 _
1S
0N
0L
#2760
0!
0#
#2770
1!
1#
b0 Q
1P
b101 R
0S
1N
1L
#2780
0!
0#
#2790
1!
1#
0P
b1 Q
b1100 _
1S
0N
0L
#2800
0!
0#
#2810
1!
1#
b0 Q
1P
b110 R
0S
1N
1L
#2820
0!
0#
#2830
1!
1#
0P
b1 Q
b1101 _
1S
0N
0L
#2840
0!
0#
#2850
1!
1#
b0 Q
1P
b111 R
0S
1N
1L
#2860
0!
0#
#2870
1!
1#
0P
b1 Q
b1110 _
1S
0N
0L
#2880
0!
0#
#2890
1!
1#
b0 Q
1P
b1000 R
0S
1N
1L
#2900
0!
0#
#2910
1!
1#
0P
b1 Q
b1111 _
1S
0N
0L
#2920
0!
0#
#2930
1!
1#
b0 Q
1P
b1001 R
0S
1N
1L
#2940
0!
0#
#2950
1!
1#
0P
b1 Q
b0 _
b11 `
1S
0N
0L
#2960
0!
0#
#2970
1!
1#
b0 Q
1P
b1010 R
0S
1N
1L
#2980
0!
0#
#2990
1!
1#
0P
b1 Q
b1 _
1S
0N
0L
#3000
0!
0#
#3010
1!
1#
b0 Q
1P
b1011 R
0S
1N
1L
#3020
0!
0#
#3030
1!
1#
0P
b1 Q
b10 _
1S
0N
0L
#3040
0!
0#
#3050
1!
1#
b0 Q
1P
b1100 R
0S
1N
1L
#3060
0!
0#
#3070
1!
1#
0P
b1 Q
b11 _
1S
0N
0L
#3080
0!
0#
#3090
1!
1#
b0 Q
1P
b1101 R
0S
1N
1L
#3100
0!
0#
#3110
1!
1#
0P
b1 Q
b100 _
1S
0N
0L
#3120
0!
0#
#3130
1!
1#
b0 Q
1P
b1110 R
0S
1N
1L
#3140
0!
0#
#3150
1!
1#
0P
b1 Q
b101 _
1S
0N
0L
#3160
0!
0#
#3170
1!
1#
b0 Q
1P
b1111 R
0S
1N
1L
#3180
0!
0#
#3190
1!
1#
0P
b1 Q
b110 _
1S
0N
0L
#3200
0!
0#
#3210
1!
1#
b0 Q
1P
b0 R
1O
0S
1N
1M
1K
1L
#3220
0!
0#
#3230
1!
1#
0P
b1 Q
b100 Z
b11 Y
b111 _
0O
1S
0N
0M
0K
0L
#3240
0!
0#
#3250
1!
1#
b0 Q
1P
b1 R
0S
1N
1L
#3260
0!
0#
#3270
1!
1#
0P
b1 Q
b1000 _
1S
0N
0L
#3280
0!
0#
#3290
1!
1#
b0 Q
1P
b10 R
0S
1N
1L
#3300
0!
0#
#3310
1!
1#
0P
b1 Q
b1001 _
1S
0N
0L
#3320
0!
0#
#3330
1!
1#
b0 Q
1P
b11 R
0S
1N
1L
#3340
0!
0#
#3350
1!
1#
0P
b1 Q
b1010 _
1S
0N
0L
#3360
0!
0#
#3370
1!
1#
b0 Q
1P
b100 R
0S
1N
1L
#3380
0!
0#
#3390
1!
1#
0P
b1 Q
b1011 _
1S
0N
0L
#3400
0!
0#
#3410
1!
1#
b0 Q
1P
b101 R
0S
1N
1L
#3420
0!
0#
#3430
1!
1#
0P
b1 Q
b1100 _
1S
0N
0L
#3440
0!
0#
#3450
1!
1#
b0 Q
1P
b110 R
0S
1N
1L
#3460
0!
0#
#3470
1!
1#
0P
b1 Q
b1101 _
1S
0N
0L
#3480
0!
0#
#3490
1!
1#
b0 Q
1P
b111 R
0S
1N
1L
#3500
0!
0#
#3510
1!
1#
0P
b1 Q
b1110 _
1S
0N
0L
#3520
0!
0#
#3530
1!
1#
b0 Q
1P
b1000 R
0S
1N
1L
#3540
0!
0#
#3550
1!
1#
0P
b1 Q
b1111 _
1S
0N
0L
#3560
0!
0#
#3570
1!
1#
b0 Q
1P
b1001 R
0S
1N
1L
#3580
0!
0#
#3590
1!
1#
0P
b1 Q
b0 _
b100 `
1S
0N
0L
#3600
0!
0#
#3610
1!
1#
b0 Q
1P
b1010 R
0S
1N
1L
#3620
0!
0#
#3630
1!
1#
0P
b1 Q
b1 _
1S
0N
0L
#3640
0!
0#
#3650
1!
1#
b0 Q
1P
b1011 R
0S
1N
1L
#3660
0!
0#
#3670
1!
1#
0P
b1 Q
b10 _
1S
0N
0L
#3680
0!
0#
#3690
1!
1#
b0 Q
1P
b1100 R
0S
1N
1L
#3700
0!
0#
#3710
1!
1#
0P
b1 Q
b11 _
1S
0N
0L
#3720
0!
0#
#3730
1!
1#
b0 Q
1P
b1101 R
0S
1N
1L
#3740
0!
0#
#3750
1!
1#
0P
b1 Q
b100 _
1S
0N
0L
#3760
0!
0#
#3770
1!
1#
b0 Q
1P
b1110 R
0S
1N
1L
#3780
0!
0#
#3790
1!
1#
0P
b1 Q
b101 _
1S
0N
0L
#3800
0!
0#
#3810
1!
1#
b0 Q
1P
b1111 R
0S
1N
1L
#3820
0!
0#
#3830
1!
1#
0P
b1 Q
b110 _
1S
0N
0L
#3840
0!
0#
#3850
1!
1#
b0 Q
1P
b0 R
1O
0S
1N
1M
1K
1L
#3860
0!
0#
#3870
1!
1#
0P
b1 Q
b10 Z
b100 Y
b111 _
0O
1S
0N
0M
0K
0L
#3880
0!
0#
#3890
1!
1#
b0 Q
1P
b1 R
0S
1N
1L
#3900
0!
0#
#3910
1!
1#
0P
b1 Q
b1000 _
1S
0N
0L
#3920
0!
0#
#3930
1!
1#
b0 Q
1P
b10 R
0S
1N
1L
#3940
0!
0#
#3950
1!
1#
0P
b1 Q
b1001 _
1S
0N
0L
#3960
0!
0#
#3970
1!
1#
b0 Q
1P
b11 R
0S
1N
1L
#3980
0!
0#
#3990
1!
1#
0P
b1 Q
b1010 _
1S
0N
0L
#4000
0!
0#
#4010
1!
1#
b0 Q
1P
b100 R
0S
1N
1L
#4020
0!
0#
#4030
1!
1#
0P
b1 Q
b1011 _
1S
0N
0L
#4040
0!
0#
#4050
1!
1#
b0 Q
1P
b101 R
0S
1N
1L
#4060
0!
0#
#4070
1!
1#
0P
b1 Q
b1100 _
1S
0N
0L
#4080
0!
0#
#4090
1!
1#
b0 Q
1P
b110 R
0S
1N
1L
#4100
0!
0#
#4110
1!
1#
0P
b1 Q
b1101 _
1S
0N
0L
#4120
0!
0#
#4130
1!
1#
b0 Q
1P
b111 R
0S
1N
1L
#4140
0!
0#
#4150
1!
1#
0P
b1 Q
b1110 _
1S
0N
0L
#4160
0!
0#
#4170
1!
1#
b0 Q
1P
b1000 R
0S
1N
1L
#4180
0!
0#
#4190
1!
1#
0P
b1 Q
b1111 _
1S
0N
0L
#4200
0!
0#
#4210
1!
1#
b0 Q
1P
b1001 R
0S
1N
1L
#4220
0!
0#
#4230
1!
1#
0P
b1 Q
b0 _
b101 `
1S
0N
0L
#4240
0!
0#
#4250
1!
1#
b0 Q
1P
b1010 R
0S
1N
1L
#4260
0!
0#
#4270
1!
1#
0P
b1 Q
b1 _
1S
0N
0L
#4280
0!
0#
#4290
1!
1#
b0 Q
1P
b1011 R
0S
1N
1L
#4300
0!
0#
#4310
1!
1#
0P
b1 Q
b10 _
1S
0N
0L
#4320
0!
0#
#4330
1!
1#
b0 Q
1P
b1100 R
0S
1N
1L
#4340
0!
0#
#4350
1!
1#
0P
b1 Q
b11 _
1S
0N
0L
#4360
0!
0#
#4370
1!
1#
b0 Q
1P
b1101 R
0S
1N
1L
#4380
0!
0#
#4390
1!
1#
0P
b1 Q
b100 _
1S
0N
0L
#4400
0!
0#
#4410
1!
1#
b0 Q
1P
b1110 R
0S
1N
1L
#4420
0!
0#
#4430
1!
1#
0P
b1 Q
b101 _
1S
0N
0L
#4440
0!
0#
#4450
1!
1#
b0 Q
1P
b1111 R
0S
1N
1L
#4460
0!
0#
#4470
1!
1#
0P
b1 Q
b110 _
1S
0N
0L
#4480
0!
0#
#4490
1!
1#
b0 Q
1P
b0 R
1O
0S
1N
1M
1K
1L
#4500
0!
0#
#4510
1!
1#
0P
b1 Q
b1 Z
b101 Y
b111 _
0O
1S
0N
0M
0K
0L
#4520
0!
0#
#4530
1!
1#
b0 Q
1P
b1 R
1T
0S
1>
1N
1A
1L
#4540
0!
0#
#4550
1!
1#
0P
b1 Q
b1000 _
1S
0N
0L
#4560
0!
0#
#4570
1!
1#
b0 Q
1P
b10 R
0S
1N
1L
#4580
0!
0#
#4590
1!
1#
0P
b1 Q
b1001 _
1S
0N
0L
#4600
0!
0#
#4610
1!
1#
b0 Q
1P
b11 R
0S
1N
1L
#4620
0!
0#
#4630
1!
1#
0P
b1 Q
b1010 _
1S
0N
0L
#4640
0!
0#
#4650
1!
1#
b0 Q
1P
b100 R
0S
1N
1L
#4660
0!
0#
#4670
1!
1#
0P
b1 Q
b1011 _
1S
0N
0L
#4680
0!
0#
#4690
1!
1#
b0 Q
1P
b101 R
0S
1N
1L
#4700
0!
0#
#4710
1!
1#
0P
b1 Q
b1100 _
1S
0N
0L
#4720
0!
0#
#4730
1!
1#
b0 Q
1P
b110 R
0S
1N
1L
#4740
0!
0#
#4750
1!
1#
0P
b1 Q
b1101 _
1S
0N
0L
#4760
0!
0#
#4770
1!
1#
b0 Q
1P
b111 R
0S
1N
1L
#4780
0!
0#
#4790
1!
1#
0P
b1 Q
b1110 _
1S
0N
0L
#4800
0!
0#
#4810
1!
1#
b0 Q
1P
b1000 R
0S
1N
1L
#4820
0!
0#
#4830
1!
1#
0P
b1 Q
b1111 _
1S
0N
0L
#4840
0!
0#
#4850
1!
1#
b0 Q
1P
b1001 R
0S
1N
1L
#4860
0!
0#
#4870
1!
1#
0P
b1 Q
b0 _
b10000000 a
b110 `
1S
0N
0L
#4880
0!
0#
#4890
1!
1#
b0 Q
1P
b1010 R
0S
1N
1L
#4900
0!
0#
#4910
1!
1#
0P
b1 Q
b1 _
1S
0N
0L
#4920
0!
0#
#4930
1!
1#
b0 Q
1P
b1011 R
0S
1N
1L
#4940
0!
0#
#4950
1!
1#
0P
b1 Q
b10 _
1S
0N
0L
#4960
0!
0#
#4970
1!
1#
b0 Q
1P
b1100 R
0S
1N
1L
#4980
0!
0#
#4990
1!
1#
0P
b1 Q
b11 _
1S
0N
0L
#5000
0!
0#
#5010
1!
1#
b0 Q
1P
b1101 R
0S
1N
1L
#5020
0!
0#
#5030
1!
1#
0P
b1 Q
b100 _
1S
0N
0L
#5040
0!
0#
#5050
1!
1#
b0 Q
1P
b1110 R
0S
1N
1L
#5060
0!
0#
#5070
1!
1#
0P
b1 Q
b101 _
1S
0N
0L
#5080
0!
0#
#5090
1!
1#
b0 Q
1P
b1111 R
0S
1N
1L
#5100
0!
0#
#5110
1!
1#
0P
b1 Q
b110 _
1S
0N
0L
#5120
0!
0#
#5130
1!
1#
b0 Q
1P
b0 R
1O
0S
1N
1M
1K
1L
#5140
0!
0#
#5150
1!
1#
0P
b1 Q
b0 Z
b110 Y
b111 _
0O
1S
0N
0M
0K
0L
#5160
0!
0#
#5170
1!
1#
b0 Q
1P
b1 R
0T
0S
0>
1N
0A
1L
#5180
0!
0#
#5190
1!
1#
0P
b1 Q
b1000 _
1S
0N
0L
#5200
0!
0#
#5210
1!
1#
b0 Q
1P
b10 R
0S
1N
1L
#5220
0!
0#
#5230
1!
1#
0P
b1 Q
b1001 _
1S
0N
0L
#5240
0!
0#
#5250
1!
1#
b0 Q
1P
b11 R
0S
1N
1L
#5260
0!
0#
#5270
1!
1#
0P
b1 Q
b1010 _
1S
0N
0L
#5280
0!
0#
#5290
1!
1#
b0 Q
1P
b100 R
0S
1N
1L
#5300
0!
0#
#5310
1!
1#
0P
b1 Q
b1011 _
1S
0N
0L
#5320
0!
0#
#5330
1!
1#
b0 Q
1P
b101 R
0S
1N
1L
#5340
0!
0#
#5350
1!
1#
0P
b1 Q
b1100 _
1S
0N
0L
#5360
0!
0#
#5370
1!
1#
b0 Q
1P
b110 R
0S
1N
1L
#5380
0!
0#
#5390
1!
1#
0P
b1 Q
b1101 _
1S
0N
0L
#5400
0!
0#
#5410
1!
1#
b0 Q
1P
b111 R
0S
1N
1L
#5420
0!
0#
#5430
1!
1#
0P
b1 Q
b1110 _
1S
0N
0L
#5440
0!
0#
#5450
1!
1#
b0 Q
1P
b1000 R
0S
1N
1L
#5460
0!
0#
#5470
1!
1#
0P
b1 Q
b1111 _
1S
0N
0L
#5480
0!
0#
#5490
1!
1#
b0 Q
1P
b1001 R
0S
1N
1L
#5500
0!
0#
#5510
1!
1#
0P
b1 Q
b0 _
b1000000 a
b111 `
1S
0N
0L
#5520
0!
0#
#5530
1!
1#
b0 Q
1P
b1010 R
0S
1N
1L
#5540
0!
0#
#5550
1!
1#
0P
b1 Q
b1 _
1S
0N
0L
#5560
0!
0#
#5570
1!
1#
b0 Q
1P
b1011 R
0S
1N
1L
#5580
0!
0#
#5590
1!
1#
0P
b1 Q
b10 _
1S
0N
0L
#5600
0!
0#
#5610
1!
1#
b0 Q
1P
b1100 R
0S
1N
1L
#5620
0!
0#
#5630
1!
1#
0P
b1 Q
b11 _
1S
0N
0L
#5640
0!
0#
#5650
1!
1#
b0 Q
1P
b1101 R
0S
1N
1L
#5660
0!
0#
#5670
1!
1#
0P
b1 Q
b100 _
1S
0N
0L
#5680
0!
0#
#5690
1!
1#
b0 Q
1P
b1110 R
0S
1N
1L
#5700
0!
0#
#5710
1!
1#
0P
b1 Q
b101 _
1S
0N
0L
#5720
0!
0#
#5730
1!
1#
b0 Q
1P
b1111 R
0S
1N
1L
#5740
0!
0#
